cpu_tb.vcd
$date
	Sun Apr 11 20:20:51 2021
$end
$version
	Icarus Verilog
$end
$timescale
	10ps
$end
$scope module cpu_tb $end
$var wire 8 ! e [7:0] $end
$var wire 8 " e1 [7:0] $end
$var wire 8 # e2 [7:0] $end
$var wire 8 $ e3 [7:0] $end
$var wire 8 % s3 [7:0] $end
$var wire 8 & s2 [7:0] $end
$var wire 8 ' s1 [7:0] $end
$var wire 8 ( s [7:0] $end
$var reg 1 ) clk $end
$var reg 1 * inter $end
$var reg 1 + reset $end
$scope module micpu $end
$var wire 1 ) clk $end
$var wire 8 , e [7:0] $end
$var wire 8 - e1 [7:0] $end
$var wire 8 . e2 [7:0] $end
$var wire 8 / e3 [7:0] $end
$var wire 1 * interrupcion $end
$var wire 1 + reset $end
$var wire 1 0 z $end
$var wire 1 1 write_key $end
$var wire 1 2 write_enable $end
$var wire 1 3 wez $end
$var wire 1 4 we_es $end
$var wire 1 5 we3 $end
$var wire 1 6 s_pop $end
$var wire 1 7 s_load $end
$var wire 1 8 s_interrupcion $end
$var wire 1 9 s_inm $end
$var wire 1 : s_inc $end
$var wire 1 ; s_cargaes $end
$var wire 8 < s3 [7:0] $end
$var wire 8 = s2 [7:0] $end
$var wire 8 > s1 [7:0] $end
$var wire 8 ? s [7:0] $end
$var wire 1 @ push $end
$var wire 1 A pop $end
$var wire 6 B opcode [5:0] $end
$var wire 3 C op_alu [2:0] $end
$var wire 1 D enable $end
$var wire 1 E clock_out $end
$scope module camino_de_datos $end
$var wire 1 ) clk $end
$var wire 8 F e [7:0] $end
$var wire 8 G e1 [7:0] $end
$var wire 8 H e2 [7:0] $end
$var wire 8 I e3 [7:0] $end
$var wire 1 + reset $end
$var wire 8 J s [7:0] $end
$var wire 8 K s1 [7:0] $end
$var wire 8 L s2 [7:0] $end
$var wire 8 M s3 [7:0] $end
$var wire 1 N zalu $end
$var wire 1 0 z $end
$var wire 1 1 write_key $end
$var wire 1 2 write_enable $end
$var wire 1 3 wez $end
$var wire 1 4 we_es $end
$var wire 1 5 we3 $end
$var wire 8 O wd3 [7:0] $end
$var wire 10 P salida_sum [9:0] $end
$var wire 10 Q salida_pila [9:0] $end
$var wire 10 R salida_muxpila [9:0] $end
$var wire 8 S salida_muxmemdata [7:0] $end
$var wire 10 T salida_muxizq [9:0] $end
$var wire 10 U salida_muxinterrupcion [9:0] $end
$var wire 8 V salida_muxalu [7:0] $end
$var wire 8 W salida_mux4a1 [7:0] $end
$var wire 8 X salida_memdata [7:0] $end
$var wire 8 Y salida_keylogger [7:0] $end
$var wire 4 Z salida_deco [3:0] $end
$var wire 8 [ salida_alu [7:0] $end
$var wire 8 \ sa3 [7:0] $end
$var wire 8 ] sa2 [7:0] $end
$var wire 8 ^ sa1 [7:0] $end
$var wire 8 _ sa [7:0] $end
$var wire 1 6 s_pop $end
$var wire 1 7 s_load $end
$var wire 1 8 s_interrupcion $end
$var wire 1 9 s_inm $end
$var wire 1 : s_inc $end
$var wire 1 ; s_cargaes $end
$var wire 8 ` rd2 [7:0] $end
$var wire 8 a rd1 [7:0] $end
$var wire 1 @ push $end
$var wire 1 A pop $end
$var wire 6 b opcode [5:0] $end
$var wire 3 c op_alu [2:0] $end
$var wire 16 d instruccion [15:0] $end
$var wire 1 D enable $end
$var wire 10 e dir [9:0] $end
$var wire 1 E clock_out $end
$scope module alu_derecha $end
$var wire 8 f y [7:0] $end
$var wire 1 N zero $end
$var wire 3 g op_alu [2:0] $end
$var wire 8 h b [7:0] $end
$var wire 8 i a [7:0] $end
$var reg 8 j s [7:0] $end
$upscope $end
$scope module banco_registro $end
$var wire 1 ) clk $end
$var wire 4 k ra1 [3:0] $end
$var wire 4 l ra2 [3:0] $end
$var wire 4 m wa3 [3:0] $end
$var wire 1 5 we3 $end
$var wire 8 n wd3 [7:0] $end
$var wire 8 o rd2 [7:0] $end
$var wire 8 p rd1 [7:0] $end
$upscope $end
$scope module deco24 $end
$var wire 2 q entrada [1:0] $end
$var wire 4 r salida [3:0] $end
$upscope $end
$scope module ffz $end
$var wire 1 ) clk $end
$var wire 1 N d $end
$var wire 1 + reset $end
$var wire 1 3 carga $end
$var reg 1 0 q $end
$upscope $end
$scope module keys $end
$var wire 1 ) clk $end
$var wire 8 s entrada [7:0] $end
$var wire 8 t salida [7:0] $end
$var wire 1 1 write_enable $end
$var reg 8 u direccion [7:0] $end
$upscope $end
$scope module memoria_de_programa $end
$var wire 1 ) clk $end
$var wire 16 v rd [15:0] $end
$var wire 10 w a [9:0] $end
$upscope $end
$scope module memoriadatos $end
$var wire 1 ) clk $end
$var wire 8 x direccion [7:0] $end
$var wire 8 y entrada [7:0] $end
$var wire 8 z salida [7:0] $end
$var wire 1 2 write_enable $end
$upscope $end
$scope module mux4a1 $end
$var wire 8 { a [7:0] $end
$var wire 8 | b [7:0] $end
$var wire 8 } c [7:0] $end
$var wire 8 ~ d [7:0] $end
$var wire 1 !" s0 $end
$var wire 1 "" s1 $end
$var wire 8 #" out [7:0] $end
$upscope $end
$scope module mux_alu $end
$var wire 8 $" d0 [7:0] $end
$var wire 8 %" d1 [7:0] $end
$var wire 8 &" y [7:0] $end
$var wire 1 9 s $end
$upscope $end
$scope module mux_es $end
$var wire 8 '" d1 [7:0] $end
$var wire 8 (" y [7:0] $end
$var wire 1 ; s $end
$var wire 8 )" d0 [7:0] $end
$upscope $end
$scope module mux_interrupcion $end
$var wire 10 *" d1 [9:0] $end
$var wire 10 +" y [9:0] $end
$var wire 1 8 s $end
$var wire 10 ," d0 [9:0] $end
$upscope $end
$scope module mux_izquierda $end
$var wire 10 -" d0 [9:0] $end
$var wire 10 ." y [9:0] $end
$var wire 1 : s $end
$var wire 10 /" d1 [9:0] $end
$upscope $end
$scope module mux_memdata $end
$var wire 8 0" d0 [7:0] $end
$var wire 8 1" d1 [7:0] $end
$var wire 8 2" y [7:0] $end
$var wire 1 7 s $end
$upscope $end
$scope module mux_pila $end
$var wire 10 3" d0 [9:0] $end
$var wire 10 4" y [9:0] $end
$var wire 1 6 s $end
$var wire 10 5" d1 [9:0] $end
$upscope $end
$scope module pc $end
$var wire 1 ) clk $end
$var wire 10 6" d [9:0] $end
$var wire 1 + reset $end
$var reg 10 7" q [9:0] $end
$upscope $end
$scope module pila $end
$var wire 1 ) clk $end
$var wire 10 8" inpush [9:0] $end
$var wire 1 + reset $end
$var wire 1 @ push $end
$var wire 1 A pop $end
$var reg 10 9" outpop [9:0] $end
$var reg 4 :" sp [3:0] $end
$upscope $end
$scope module registro1 $end
$var wire 1 ) clk $end
$var wire 8 ;" d [7:0] $end
$var wire 1 + reset $end
$var wire 1 <" we $end
$var reg 8 =" q [7:0] $end
$upscope $end
$scope module registro2 $end
$var wire 1 ) clk $end
$var wire 8 >" d [7:0] $end
$var wire 1 + reset $end
$var wire 1 ?" we $end
$var reg 8 @" q [7:0] $end
$upscope $end
$scope module registro3 $end
$var wire 1 ) clk $end
$var wire 8 A" d [7:0] $end
$var wire 1 + reset $end
$var wire 1 B" we $end
$var reg 8 C" q [7:0] $end
$upscope $end
$scope module registro4 $end
$var wire 1 ) clk $end
$var wire 8 D" d [7:0] $end
$var wire 1 + reset $end
$var wire 1 E" we $end
$var reg 8 F" q [7:0] $end
$upscope $end
$scope module sumador $end
$var wire 10 G" a [9:0] $end
$var wire 10 H" b [9:0] $end
$var wire 10 I" y [9:0] $end
$upscope $end
$scope module timer $end
$var wire 2 J" base [1:0] $end
$var wire 1 ) clk $end
$var wire 1 + reset $end
$var wire 6 K" umbral [5:0] $end
$var wire 1 D enable $end
$var reg 8 L" base_th [7:0] $end
$var reg 1 E clock_out $end
$var reg 28 M" counter [27:0] $end
$var reg 28 N" divisor [27:0] $end
$var reg 6 O" temp [5:0] $end
$upscope $end
$upscope $end
$scope module unidad_de_control $end
$var wire 1 E clock_out $end
$var wire 1 * interrupcion $end
$var wire 6 P" opcode [5:0] $end
$var wire 1 0 z $end
$var reg 1 D enable $end
$var reg 3 Q" op_alu [2:0] $end
$var reg 1 A pop $end
$var reg 1 @ push $end
$var reg 1 ; s_cargaes $end
$var reg 1 : s_inc $end
$var reg 1 9 s_inm $end
$var reg 1 8 s_interrupcion $end
$var reg 1 7 s_load $end
$var reg 1 6 s_pop $end
$var reg 1 5 we3 $end
$var reg 1 4 we_es $end
$var reg 1 3 wez $end
$var reg 1 2 write_enable $end
$var reg 1 1 write_key $end
$upscope $end
$upscope $end
$upscope $end
$enddefinitions $end
#0
$dumpvars
b0 Q"
b111110 P"
b0 O"
b100111000100000 N"
b1 M"
b10000001 L"
b1 K"
b10 J"
b1 I"
b0 H"
b1 G"
b0 F"
0E"
b11 D"
b0 C"
0B"
b11 A"
b0 @"
0?"
b11 >"
b0 ="
0<"
b11 ;"
b0 :"
bx 9"
b0 8"
b0 7"
b1 6"
bx 5"
b1 4"
b1 3"
b11 2"
bx 1"
b11 0"
b1 /"
b1 ."
b10000001 -"
b1 ,"
b1 +"
b1110000100 *"
b11 )"
b11 ("
b0 '"
b11 &"
b10001000 %"
b11 $"
b0 #"
1""
0!"
b0 ~
b0 }
b1 |
b0 {
bx z
b11 y
b10000001 x
b0 w
b1111100010000001 v
b0 u
b11 t
b11 s
b100 r
b10 q
b11 p
b11 o
b11 n
b1 m
b1000 l
b1000 k
b11 j
b11 i
b11 h
b0 g
b11 f
b0 e
b1111100010000001 d
b0 c
b111110 b
b11 a
b11 `
b0 _
b0 ^
b0 ]
b0 \
b11 [
b100 Z
b11 Y
bx X
b0 W
b11 V
b1 U
b1 T
b11 S
b1 R
bx Q
b1 P
b11 O
0N
b0 M
b0 L
b0 K
b0 J
b0 I
b0 H
b1 G
b0 F
0E
1D
b0 C
b111110 B
0A
0@
b0 ?
b0 >
b0 =
b0 <
0;
1:
09
08
07
06
05
04
03
02
01
00
b0 /
b0 .
b1 -
b0 ,
1+
x*
1)
b0 (
b0 '
b0 &
b0 %
b0 $
b0 #
b1 "
b0 !
$end
#1000000
0+
#2500000
0)
#5000000
b11111111 Y
b11111111 t
b11111111 O
b11111111 n
b11111111 ("
b11111111 S
b11111111 )"
b11111111 2"
b11111111 V
b11111111 &"
b11111111 0"
b10 U
b10 +"
b10 6"
b1 Z
b1 r
b11111111 [
b11111111 f
b11111111 j
b11111111 s
b11111111 y
b11111111 $"
b10 R
b10 ,"
b10 4"
0D
b11 C
b11 c
b11 g
b11 Q"
13
15
b10 `
b10 h
b10 o
b10 ;"
b10 >"
b10 A"
b10 D"
b1 a
b1 i
b1 p
b10 T
b10 ."
b10 3"
b1000 B
b1000 b
b1000 P"
b100001 K"
b0 J"
0""
b0 q
b100001 x
b100100001 -"
b10010 %"
b10 l
b1 k
b10 M"
b10 P
b10 /"
b10 I"
b10000100100001 d
b10000100100001 v
b1 e
b1 w
b1 7"
b1 8"
b1 H"
1)
#7500000
0)
#10000000
b0 Y
b0 t
b111 O
b111 n
b111 ("
b111 S
b111 )"
b111 2"
1N
b11 U
b11 +"
b11 6"
b111 V
b111 &"
b111 0"
b0 [
b0 f
b0 j
b0 s
b0 y
b0 $"
b11 R
b11 ,"
b11 4"
b0 C
b0 c
b0 g
b0 Q"
03
19
b0 `
b0 h
b0 o
b0 ;"
b0 >"
b0 A"
b0 D"
b0 a
b0 i
b0 p
b11 T
b11 ."
b11 3"
b101000 B
b101000 b
b101000 P"
b110100 K"
b1 J"
b1110100 x
b1110100 -"
b111 %"
b100 m
b111 l
b0 k
b11 M"
b11 P
b11 /"
b11 I"
b1010000001110100 d
b1010000001110100 v
b10 e
b10 w
b10 7"
b10 8"
b10 H"
1)
#12500000
0)
#15000000
b0 O
b0 n
b0 ("
b110 U
b110 +"
b110 6"
b1000 Z
b1000 r
b0 S
b0 )"
b0 2"
b110 R
b110 ,"
b110 4"
05
09
0:
b0 V
b0 &"
b0 0"
b110 T
b110 ."
b110 3"
b11 B
b11 b
b11 P"
b110 K"
b0 J"
1!"
1""
b11 q
b110 x
b110 -"
b11000000 %"
b110 m
b0 l
b1100 k
b100 M"
b100 P
b100 /"
b100 I"
b110000000110 d
b110000000110 v
b11 e
b11 w
b11 7"
b11 8"
b11 H"
1)
#17500000
0)
#20000000
b110 Y
b110 t
b110 O
b110 n
b110 ("
b110 S
b110 )"
b110 2"
b111 U
b111 +"
b111 6"
0N
b110 V
b110 &"
b110 0"
b1 Z
b1 r
b111 R
b111 ,"
b111 4"
b110 [
b110 f
b110 j
b110 s
b110 y
b110 $"
b10 C
b10 c
b10 g
b10 Q"
13
15
1:
b0 W
b0 #"
b0 '"
b111 T
b111 ."
b111 3"
b111 `
b111 h
b111 o
b111 ;"
b111 >"
b111 A"
b111 D"
b11111111 a
b11111111 i
b11111111 p
b100 B
b100 b
b100 P"
b1 K"
b1 J"
0!"
0""
b0 q
b1000001 x
b101000001 -"
b10100 %"
b1 m
b100 l
b1 k
b101 M"
b111 P
b111 /"
b111 I"
b1000101000001 d
b1000101000001 v
b110 e
b110 w
b110 7"
b110 8"
b110 H"
1)
#22500000
0)
#25000000
b111 Y
b111 t
b111 O
b111 n
b111 ("
b111 S
b111 )"
b111 2"
b111 V
b111 &"
b111 0"
b1001 U
b1001 +"
b1001 6"
b1 W
b1 #"
b1 '"
b10 Z
b10 r
b111 [
b111 f
b111 j
b111 s
b111 y
b111 $"
b1001 R
b1001 ,"
b1001 4"
b0 C
b0 c
b0 g
b0 Q"
05
0:
b0 `
b0 h
b0 o
b0 ;"
b0 >"
b0 A"
b0 D"
b111 a
b111 i
b111 p
b1001 T
b1001 ."
b1001 3"
b1 B
b1 b
b1 P"
b1001 K"
b0 J"
1!"
b1 q
b1001 x
b1001 -"
b1000000 %"
b1001 m
b0 l
b100 k
b110 M"
b1000 P
b1000 /"
b1000 I"
b10000001001 d
b10000001001 v
b111 e
b111 w
b111 7"
b111 8"
b111 H"
1)
#27500000
0)
#30000000
b0 Y
b0 t
b0 O
b0 n
b0 ("
b0 S
b0 )"
b0 2"
b1010 U
b1010 +"
b1010 6"
1N
b0 V
b0 &"
b0 0"
b0 W
b0 #"
b0 '"
b1 Z
b1 r
b1010 R
b1010 ,"
b1010 4"
b0 [
b0 f
b0 j
b0 s
b0 y
b0 $"
b11 C
b11 c
b11 g
b11 Q"
15
1:
b1010 T
b1010 ."
b1010 3"
b110 `
b110 h
b110 o
b110 ;"
b110 >"
b110 A"
b110 D"
b110 a
b110 i
b110 p
b1000 B
b1000 b
b1000 P"
b10001 K"
0!"
b0 q
b10001 x
b100010001 -"
b10001 %"
b1 m
b1 l
b1 k
b111 M"
b1010 P
b1010 /"
b1010 I"
b10000100010001 d
b10000100010001 v
b1001 e
b1001 w
b1001 7"
b1001 8"
b1001 H"
1)
#32500000
0)
#35000000
b1100 U
b1100 +"
b1100 6"
b1100 R
b1100 ,"
b1100 4"
b0 C
b0 c
b0 g
b0 Q"
05
0:
b0 a
b0 i
b0 p
b0 `
b0 h
b0 o
b0 ;"
b0 >"
b0 A"
b0 D"
b1100 T
b1100 ."
b1100 3"
b0 B
b0 b
b0 P"
b1100 K"
b1100 x
b1100 -"
b0 %"
b1100 m
b0 l
b0 k
b1000 M"
b1011 P
b1011 /"
b1011 I"
b1100 d
b1100 v
b1010 e
b1010 w
b1010 7"
b1010 8"
b1010 H"
10
1)
#37500000
0)
#40000000
b1110 Y
b1110 t
b1110 O
b1110 n
b1110 ("
b1110 S
b1110 )"
b1110 2"
b1101 U
b1101 +"
b1101 6"
0N
b1110 V
b1110 &"
b1110 0"
b1 W
b1 #"
b1 '"
b10 Z
b10 r
b1101 R
b1101 ,"
b1101 4"
b1110 [
b1110 f
b1110 j
b1110 s
b1110 y
b1110 $"
b10 C
b10 c
b10 g
b10 Q"
15
1:
b1101 T
b1101 ."
b1101 3"
b111 `
b111 h
b111 o
b111 ;"
b111 >"
b111 A"
b111 D"
b111 a
b111 i
b111 p
b101 B
b101 b
b101 P"
b1 K"
b1 J"
1!"
b1 q
b1000001 x
b1000001 -"
b1000100 %"
b1 m
b100 l
b100 k
b1001 M"
b1101 P
b1101 /"
b1101 I"
b1010001000001 d
b1010001000001 v
b1100 e
b1100 w
b1100 7"
b1100 8"
b1100 H"
1)
#42500000
0)
#45000000
b0 Y
b0 t
b0 O
b0 n
b0 ("
b0 S
b0 )"
b0 2"
1N
b0 V
b0 &"
b0 0"
b100000 U
b100000 +"
b100000 6"
b1 :"
b0 W
b0 #"
b0 '"
b1 Z
b1 r
b0 [
b0 f
b0 j
b0 s
b0 y
b0 $"
b100000 R
b100000 ,"
b100000 4"
1@
b0 C
b0 c
b0 g
b0 Q"
03
05
0:
b10 `
b10 h
b10 o
b10 ;"
b10 >"
b10 A"
b10 D"
b0 a
b0 i
b0 p
b100000 T
b100000 ."
b100000 3"
b111100 B
b111100 b
b111100 P"
b100000 K"
b0 J"
0!"
b0 q
b100000 x
b100000 -"
b10 %"
b0 m
b10 l
b0 k
b1010 M"
b1110 P
b1110 /"
b1110 I"
b1111000000100000 d
b1111000000100000 v
b1101 e
b1101 w
b1101 7"
b1101 8"
b1101 H"
00
1)
#47500000
0)
#50000000
b1110 Y
b1110 t
b1110 O
b1110 n
b1110 ("
b1110 S
b1110 )"
b1110 2"
b100001 U
b100001 +"
b100001 6"
0N
b1110 V
b1110 &"
b1110 0"
b1 W
b1 #"
b1 '"
b10 Z
b10 r
b100001 R
b100001 ,"
b100001 4"
b1110 [
b1110 f
b1110 j
b1110 s
b1110 y
b1110 $"
0@
b10 C
b10 c
b10 g
b10 Q"
13
15
1:
b100001 T
b100001 ."
b100001 3"
b111 `
b111 h
b111 o
b111 ;"
b111 >"
b111 A"
b111 D"
b111 a
b111 i
b111 p
b101 B
b101 b
b101 P"
b1 K"
b1 J"
1!"
b1 q
b1000001 x
b1000001 -"
b1000100 %"
b1 m
b100 l
b100 k
b1011 M"
b100001 P
b100001 /"
b100001 I"
b1010001000001 d
b1010001000001 v
b100000 e
b100000 w
b100000 7"
b100000 8"
b100000 H"
1)
#52500000
0)
#55000000
b1100 Y
b1100 t
b1100 O
b1100 n
b1100 ("
b1100 S
b1100 )"
b1100 2"
b1100 V
b1100 &"
b1100 0"
b100010 U
b100010 +"
b100010 6"
b0 W
b0 #"
b0 '"
b1 Z
b1 r
b1100 [
b1100 f
b1100 j
b1100 s
b1100 y
b1100 $"
b100010 R
b100010 ,"
b100010 4"
b11 C
b11 c
b11 g
b11 Q"
b10 `
b10 h
b10 o
b10 ;"
b10 >"
b10 A"
b10 D"
b1110 a
b1110 i
b1110 p
b100010 T
b100010 ."
b100010 3"
b1000 B
b1000 b
b1000 P"
b100001 K"
b0 J"
0!"
b0 q
b100001 x
b100100001 -"
b10010 %"
b10 l
b1 k
b1100 M"
b100010 P
b100010 /"
b100010 I"
b10000100100001 d
b10000100100001 v
b100001 e
b100001 w
b100001 7"
b100001 8"
b100001 H"
1)
#57500000
0)
#60000000
b0 Y
b0 t
b0 O
b0 n
b0 ("
b0 S
b0 )"
b0 2"
1N
b0 V
b0 &"
b0 0"
b101000 U
b101000 +"
b101000 6"
b10 :"
b0 [
b0 f
b0 j
b0 s
b0 y
b0 $"
b101000 R
b101000 ,"
b101000 4"
1@
b0 C
b0 c
b0 g
b0 Q"
03
05
0:
b0 a
b0 i
b0 p
b101000 T
b101000 ."
b101000 3"
b111100 B
b111100 b
b111100 P"
b101000 K"
b101000 x
b101000 -"
b10 %"
b1000 m
b0 k
b1101 M"
b100011 P
b100011 /"
b100011 I"
b1111000000101000 d
b1111000000101000 v
b100010 e
b100010 w
b100010 7"
b100010 8"
b100010 H"
1)
#62500000
0)
#65000000
b1110 Y
b1110 t
b1110 O
b1110 n
b1110 ("
b1110 S
b1110 )"
b1110 2"
b101001 U
b101001 +"
b101001 6"
0N
b1110 V
b1110 &"
b1110 0"
b1 W
b1 #"
b1 '"
b10 Z
b10 r
b101001 R
b101001 ,"
b101001 4"
b1110 [
b1110 f
b1110 j
b1110 s
b1110 y
b1110 $"
0@
b10 C
b10 c
b10 g
b10 Q"
13
15
1:
b101001 T
b101001 ."
b101001 3"
b111 `
b111 h
b111 o
b111 ;"
b111 >"
b111 A"
b111 D"
b111 a
b111 i
b111 p
b101 B
b101 b
b101 P"
b1 K"
b1 J"
1!"
b1 q
b1000001 x
b1000001 -"
b1000100 %"
b1 m
b100 l
b100 k
b1110 M"
b101001 P
b101001 /"
b101001 I"
b1010001000001 d
b1010001000001 v
b101000 e
b101000 w
b101000 7"
b101000 8"
b101000 H"
1)
#67500000
0)
#70000000
b111 Y
b111 t
b111 S
b111 )"
b111 2"
b111 V
b111 &"
b111 0"
b101010 U
b101010 +"
b101010 6"
b1 O
b1 n
b1 ("
b111 [
b111 f
b111 j
b111 s
b111 y
b111 $"
b101010 R
b101010 ,"
b101010 4"
1;
b0 C
b0 c
b0 g
b0 Q"
03
b0 `
b0 h
b0 o
b0 ;"
b0 >"
b0 A"
b0 D"
b101010 T
b101010 ."
b101010 3"
b10101 B
b10101 b
b10101 P"
b100 K"
b0 J"
b100 x
b100 -"
b1000000 %"
b100 m
b0 l
b1111 M"
b101010 P
b101010 /"
b101010 I"
b101010000000100 d
b101010000000100 v
b101001 e
b101001 w
b101001 7"
b101001 8"
b101001 H"
1)
#72500000
0)
#75000000
b10 Y
b10 t
b10 S
b10 )"
b10 2"
b10 V
b10 &"
b10 0"
b101011 U
b101011 +"
b101011 6"
b10 O
b10 n
b10 ("
b10 [
b10 f
b10 j
b10 s
b10 y
b10 $"
b101011 R
b101011 ,"
b101011 4"
0;
b10 C
b10 c
b10 g
b10 Q"
13
b1 `
b1 h
b1 o
b1 ;"
b1 >"
b1 A"
b1 D"
b1 a
b1 i
b1 p
b101011 T
b101011 ."
b101011 3"
b101 B
b101 b
b101 P"
b1 J"
b1000100 x
b1000100 -"
b1000100 %"
b100 l
b10000 M"
b101011 P
b101011 /"
b101011 I"
b1010001000100 d
b1010001000100 v
b101010 e
b101010 w
b101010 7"
b101010 8"
b101010 H"
1)
#77500000
0)
#80000000
b10 '
b10 >
b10 K
b10 ^
b10 @"
b101100 U
b101100 +"
b101100 6"
1?"
b101100 R
b101100 ,"
b101100 4"
14
b0 C
b0 c
b0 g
b0 Q"
03
05
b10 a
b10 i
b10 p
b10 `
b10 h
b10 o
b10 ;"
b10 >"
b10 A"
b10 D"
b101100 T
b101100 ."
b101100 3"
b11001 B
b11001 b
b11001 P"
b0 K"
b1000000 x
b1000000 -"
b0 m
b10001 M"
b101100 P
b101100 /"
b101100 I"
b110010001000000 d
b110010001000000 v
b101011 e
b101011 w
b101011 7"
b101011 8"
b101011 H"
1)
#82500000
0)
#85000000
b100 Y
b100 t
b100 O
b100 n
b100 ("
b100 S
b100 )"
b100 2"
b100 V
b100 &"
b100 0"
b101101 U
b101101 +"
b101101 6"
0?"
b100 [
b100 f
b100 j
b100 s
b100 y
b100 $"
b101101 R
b101101 ,"
b101101 4"
04
b10 C
b10 c
b10 g
b10 Q"
13
15
b101101 T
b101101 ."
b101101 3"
b101 B
b101 b
b101 P"
b100 K"
b1000100 x
b1000100 -"
b100 m
b10010 M"
b101101 P
b101101 /"
b101101 I"
b1010001000100 d
b1010001000100 v
b101100 e
b101100 w
b101100 7"
b101100 8"
b101100 H"
1)
#87500000
0)
#90000000
b100011 U
b100011 +"
b100011 6"
b1 :"
b100011 Q
b100011 5"
b100011 9"
b100011 R
b100011 ,"
b100011 4"
16
1A
b0 C
b0 c
b0 g
b0 Q"
03
05
0:
b100 a
b100 i
b100 p
b0 `
b0 h
b0 o
b0 ;"
b0 >"
b0 A"
b0 D"
b0 T
b0 ."
b0 3"
b111101 B
b111101 b
b111101 P"
b0 K"
b0 J"
b0 x
b0 -"
b1000000 %"
b0 m
b0 l
b10011 M"
b101110 P
b101110 /"
b101110 I"
b1111010000000000 d
b1111010000000000 v
b101101 e
b101101 w
b101101 7"
b101101 8"
b101101 H"
1)
#92500000
0)
#95000000
b1000 Y
b1000 t
b1000 O
b1000 n
b1000 ("
b1000 S
b1000 )"
b1000 2"
b100100 U
b100100 +"
b100100 6"
b1000 V
b1000 &"
b1000 0"
b100100 R
b100100 ,"
b100100 4"
b1000 [
b1000 f
b1000 j
b1000 s
b1000 y
b1000 $"
06
0A
b10 C
b10 c
b10 g
b10 Q"
13
15
1:
b100100 T
b100100 ."
b100100 3"
b100 `
b100 h
b100 o
b100 ;"
b100 >"
b100 A"
b100 D"
b101 B
b101 b
b101 P"
b1 K"
b1 J"
b1000001 x
b1000001 -"
b1000100 %"
b1 m
b100 l
b10100 M"
b100100 P
b100100 /"
b100100 I"
b1010001000001 d
b1010001000001 v
b100011 e
b100011 w
b100011 7"
b100011 8"
b100011 H"
1)
#97500000
0)
#100000000
b100 Y
b100 t
b100 O
b100 n
b100 ("
b100 S
b100 )"
b100 2"
b100 V
b100 &"
b100 0"
b1110 U
b1110 +"
b1110 6"
b0 :"
b1110 Q
b1110 5"
b1110 9"
b100 [
b100 f
b100 j
b100 s
b100 y
b100 $"
b1110 R
b1110 ,"
b1110 4"
16
1A
b0 C
b0 c
b0 g
b0 Q"
03
05
0:
b0 `
b0 h
b0 o
b0 ;"
b0 >"
b0 A"
b0 D"
b0 T
b0 ."
b0 3"
b111101 B
b111101 b
b111101 P"
b0 K"
b0 J"
b0 x
b0 -"
b1000000 %"
b0 m
b0 l
b10101 M"
b100101 P
b100101 /"
b100101 I"
b1111010000000000 d
b1111010000000000 v
b100100 e
b100100 w
b100100 7"
b100100 8"
b100100 H"
1)
#102500000
0)
#105000000
b11 Y
b11 t
bx O
bx n
bx ("
b1111 U
b1111 +"
b1111 6"
b11 V
b11 &"
b11 0"
bx S
bx )"
bx 2"
b1111 R
b1111 ,"
b1111 4"
b100 Z
b100 r
b11 [
b11 f
b11 j
b11 s
b11 y
b11 $"
17
06
0A
15
1:
b0 W
b0 #"
b0 '"
b1111 T
b1111 ."
b1111 3"
b11 a
b11 i
b11 p
b10010 B
b10010 b
b10010 P"
b1 K"
0!"
1""
b10 q
b1 x
b1 -"
b10000000 %"
b1 m
b1000 k
b10110 M"
b1111 P
b1111 /"
b1111 I"
b100100000000001 d
b100100000000001 v
b1110 e
b1110 w
b1110 7"
b1110 8"
b1110 H"
1)
#107500000
0)
#110000000
bx Y
bx t
b10000 O
b10000 n
b10000 ("
xN
b10000 U
b10000 +"
b10000 6"
b10000 S
b10000 )"
b10000 2"
b10000 V
b10000 &"
b10000 0"
b1 Z
b1 r
bx [
bx f
bx j
bx s
bx y
bx $"
b10000 R
b10000 ,"
b10000 4"
07
19
bx a
bx i
bx p
b10000 T
b10000 ."
b10000 3"
b101000 B
b101000 b
b101000 P"
0""
b0 q
b100000001 -"
b10000 %"
b1 k
b10111 M"
b10000 P
b10000 /"
b10000 I"
b1010000100000001 d
b1010000100000001 v
b1111 e
b1111 w
b1111 7"
b1111 8"
b1111 H"
1)
#112500000
0)
#115000000
b100000 Y
b100000 t
b100000 O
b100000 n
b100000 ("
0N
b10001 U
b10001 +"
b10001 6"
b100000 S
b100000 )"
b100000 2"
b100000 [
b100000 f
b100000 j
b100000 s
b100000 y
b100000 $"
b10001 R
b10001 ,"
b10001 4"
b10 C
b10 c
b10 g
b10 Q"
13
09
b100000 V
b100000 &"
b100000 0"
b10000 `
b10000 h
b10000 o
b10000 ;"
b10000 >"
b10000 A"
b10000 D"
b10000 a
b10000 i
b10000 p
b10001 T
b10001 ."
b10001 3"
b100 B
b100 b
b100 P"
b10001 K"
b10001 x
b100010001 -"
b10001 %"
b1 l
b11000 M"
b10001 P
b10001 /"
b10001 I"
b1000100010001 d
b1000100010001 v
b10000 e
b10000 w
b10000 7"
b10000 8"
b10000 H"
1)
#117500000
0)
#120000000
b0 Y
b0 t
b0 O
b0 n
b0 ("
b0 S
b0 )"
b0 2"
1N
b0 V
b0 &"
b0 0"
b10001 U
b10001 +"
b10001 6"
b1000 Z
b1000 r
b0 [
b0 f
b0 j
b0 s
b0 y
b0 $"
b10001 R
b10001 ,"
b10001 4"
b0 C
b0 c
b0 g
b0 Q"
03
05
0:
b0 a
b0 i
b0 p
b100000 `
b100000 h
b100000 o
b100000 ;"
b100000 >"
b100000 A"
b100000 D"
b10001 T
b10001 ."
b10001 3"
b11 B
b11 b
b11 P"
1!"
1""
b11 q
b10001 -"
b11000001 %"
b1100 k
b11001 M"
b10010 P
b10010 /"
b10010 I"
b110000010001 d
b110000010001 v
b10001 e
b10001 w
b10001 7"
b10001 8"
b10001 H"
1)
#122500000
0)
#125000000
b11010 M"
1)
#127500000
0)
#130000000
b11011 M"
1)
#132500000
0)
#135000000
b11100 M"
1)
#137500000
0)
#140000000
b11101 M"
1)
#142500000
0)
#145000000
b11110 M"
1)
#147500000
0)
#150000000
b11111 M"
1)
#152500000
0)
#155000000
b100000 M"
1)
#157500000
0)
#160000000
b100001 M"
1)
#162500000
0)
#165000000
b100010 M"
1)
#167500000
0)
#170000000
b100011 M"
1)
#172500000
0)
#175000000
b100100 M"
1)
#177500000
0)
#180000000
b100101 M"
1)
#182500000
0)
#185000000
b100110 M"
1)
#187500000
0)
#190000000
b100111 M"
1)
#192500000
0)
#195000000
b101000 M"
1)
#197500000
0)
#200000000
b101001 M"
1)
#202500000
0)
#205000000
b101010 M"
1)
#207500000
0)
#210000000
b101011 M"
1)
#212500000
0)
#215000000
b101100 M"
1)
#217500000
0)
#220000000
b101101 M"
1)
#222500000
0)
#225000000
b101110 M"
1)
#227500000
0)
#230000000
b101111 M"
1)
#232500000
0)
#235000000
b110000 M"
1)
#237500000
0)
#240000000
b110001 M"
1)
#242500000
0)
#245000000
b110010 M"
1)
#247500000
0)
#250000000
b110011 M"
1)
#252500000
0)
#255000000
b110100 M"
1)
#257500000
0)
#260000000
b110101 M"
1)
#262500000
0)
