cpu_tb.vcd
$date
	Sat Apr  3 19:29:52 2021
$end
$version
	Icarus Verilog
$end
$timescale
	10ps
$end
$scope module cpu_tb $end
$var wire 8 ! e [7:0] $end
$var wire 8 " e1 [7:0] $end
$var wire 8 # e2 [7:0] $end
$var wire 8 $ e3 [7:0] $end
$var wire 8 % s3 [7:0] $end
$var wire 8 & s2 [7:0] $end
$var wire 8 ' s1 [7:0] $end
$var wire 8 ( s [7:0] $end
$var reg 1 ) clk $end
$var reg 1 * inter $end
$var reg 1 + reset $end
$scope module micpu $end
$var wire 1 ) clk $end
$var wire 8 , e [7:0] $end
$var wire 8 - e1 [7:0] $end
$var wire 8 . e2 [7:0] $end
$var wire 8 / e3 [7:0] $end
$var wire 1 * interrupcion $end
$var wire 1 + reset $end
$var wire 1 0 z $end
$var wire 1 1 write_enable $end
$var wire 1 2 wez $end
$var wire 1 3 we_es $end
$var wire 1 4 we3 $end
$var wire 1 5 s_pop $end
$var wire 1 6 s_load $end
$var wire 1 7 s_interrupcion $end
$var wire 1 8 s_inm $end
$var wire 1 9 s_inc $end
$var wire 1 : s_cargaes $end
$var wire 8 ; s3 [7:0] $end
$var wire 8 < s2 [7:0] $end
$var wire 8 = s1 [7:0] $end
$var wire 8 > s [7:0] $end
$var wire 1 ? push $end
$var wire 1 @ pop $end
$var wire 6 A opcode [5:0] $end
$var wire 3 B op_alu [2:0] $end
$scope module camino_de_datos $end
$var wire 1 ) clk $end
$var wire 8 C e [7:0] $end
$var wire 8 D e1 [7:0] $end
$var wire 8 E e2 [7:0] $end
$var wire 8 F e3 [7:0] $end
$var wire 1 + reset $end
$var wire 8 G s [7:0] $end
$var wire 8 H s1 [7:0] $end
$var wire 8 I s2 [7:0] $end
$var wire 8 J s3 [7:0] $end
$var wire 1 K zalu $end
$var wire 1 0 z $end
$var wire 1 1 write_enable $end
$var wire 1 2 wez $end
$var wire 1 3 we_es $end
$var wire 1 4 we3 $end
$var wire 8 L wd3 [7:0] $end
$var wire 10 M salida_sum [9:0] $end
$var wire 10 N salida_pila [9:0] $end
$var wire 10 O salida_muxpila [9:0] $end
$var wire 8 P salida_muxmemdata [7:0] $end
$var wire 10 Q salida_muxizq [9:0] $end
$var wire 10 R salida_muxinterrupcion [9:0] $end
$var wire 8 S salida_muxalu [7:0] $end
$var wire 8 T salida_mux4a1 [7:0] $end
$var wire 8 U salida_memdata [7:0] $end
$var wire 4 V salida_deco [3:0] $end
$var wire 8 W salida_alu [7:0] $end
$var wire 8 X sa3 [7:0] $end
$var wire 8 Y sa2 [7:0] $end
$var wire 8 Z sa1 [7:0] $end
$var wire 8 [ sa [7:0] $end
$var wire 1 5 s_pop $end
$var wire 1 6 s_load $end
$var wire 1 7 s_interrupcion $end
$var wire 1 8 s_inm $end
$var wire 1 9 s_inc $end
$var wire 1 : s_cargaes $end
$var wire 8 \ rd2 [7:0] $end
$var wire 8 ] rd1 [7:0] $end
$var wire 1 ? push $end
$var wire 1 @ pop $end
$var wire 6 ^ opcode [5:0] $end
$var wire 3 _ op_alu [2:0] $end
$var wire 16 ` instruccion [15:0] $end
$var wire 10 a dir [9:0] $end
$scope module alu_derecha $end
$var wire 8 b y [7:0] $end
$var wire 1 K zero $end
$var wire 3 c op_alu [2:0] $end
$var wire 8 d b [7:0] $end
$var wire 8 e a [7:0] $end
$var reg 8 f s [7:0] $end
$upscope $end
$scope module banco_registro $end
$var wire 1 ) clk $end
$var wire 4 g ra1 [3:0] $end
$var wire 4 h ra2 [3:0] $end
$var wire 4 i wa3 [3:0] $end
$var wire 1 4 we3 $end
$var wire 8 j wd3 [7:0] $end
$var wire 8 k rd2 [7:0] $end
$var wire 8 l rd1 [7:0] $end
$upscope $end
$scope module deco24 $end
$var wire 2 m entrada [1:0] $end
$var wire 4 n salida [3:0] $end
$upscope $end
$scope module ffz $end
$var wire 1 ) clk $end
$var wire 1 K d $end
$var wire 1 + reset $end
$var wire 1 2 carga $end
$var reg 1 0 q $end
$upscope $end
$scope module memoria_de_programa $end
$var wire 1 ) clk $end
$var wire 16 o rd [15:0] $end
$var wire 10 p a [9:0] $end
$upscope $end
$scope module memoriadatos $end
$var wire 1 ) clk $end
$var wire 6 q direccion [5:0] $end
$var wire 8 r entrada [7:0] $end
$var wire 8 s salida [7:0] $end
$var wire 1 1 write_enable $end
$upscope $end
$scope module mux4a1 $end
$var wire 8 t a [7:0] $end
$var wire 8 u b [7:0] $end
$var wire 8 v c [7:0] $end
$var wire 8 w d [7:0] $end
$var wire 1 x s0 $end
$var wire 1 y s1 $end
$var wire 8 z out [7:0] $end
$upscope $end
$scope module mux_alu $end
$var wire 8 { d0 [7:0] $end
$var wire 8 | d1 [7:0] $end
$var wire 8 } y [7:0] $end
$var wire 1 8 s $end
$upscope $end
$scope module mux_es $end
$var wire 8 ~ d1 [7:0] $end
$var wire 8 !" y [7:0] $end
$var wire 1 : s $end
$var wire 8 "" d0 [7:0] $end
$upscope $end
$scope module mux_interrupcion $end
$var wire 10 #" d1 [9:0] $end
$var wire 10 $" y [9:0] $end
$var wire 1 7 s $end
$var wire 10 %" d0 [9:0] $end
$upscope $end
$scope module mux_izquierda $end
$var wire 10 &" d0 [9:0] $end
$var wire 10 '" y [9:0] $end
$var wire 1 9 s $end
$var wire 10 (" d1 [9:0] $end
$upscope $end
$scope module mux_memdata $end
$var wire 8 )" d0 [7:0] $end
$var wire 8 *" d1 [7:0] $end
$var wire 8 +" y [7:0] $end
$var wire 1 6 s $end
$upscope $end
$scope module mux_pila $end
$var wire 10 ," d0 [9:0] $end
$var wire 10 -" y [9:0] $end
$var wire 1 5 s $end
$var wire 10 ." d1 [9:0] $end
$upscope $end
$scope module pc $end
$var wire 1 ) clk $end
$var wire 10 /" d [9:0] $end
$var wire 1 + reset $end
$var reg 10 0" q [9:0] $end
$upscope $end
$scope module pila $end
$var wire 1 ) clk $end
$var wire 10 1" inpush [9:0] $end
$var wire 1 + reset $end
$var wire 1 ? push $end
$var wire 1 @ pop $end
$var reg 10 2" outpop [9:0] $end
$var reg 4 3" sp [3:0] $end
$upscope $end
$scope module registro1 $end
$var wire 1 ) clk $end
$var wire 8 4" d [7:0] $end
$var wire 1 + reset $end
$var wire 1 5" we $end
$var reg 8 6" q [7:0] $end
$upscope $end
$scope module registro2 $end
$var wire 1 ) clk $end
$var wire 8 7" d [7:0] $end
$var wire 1 + reset $end
$var wire 1 8" we $end
$var reg 8 9" q [7:0] $end
$upscope $end
$scope module registro3 $end
$var wire 1 ) clk $end
$var wire 8 :" d [7:0] $end
$var wire 1 + reset $end
$var wire 1 ;" we $end
$var reg 8 <" q [7:0] $end
$upscope $end
$scope module registro4 $end
$var wire 1 ) clk $end
$var wire 8 =" d [7:0] $end
$var wire 1 + reset $end
$var wire 1 >" we $end
$var reg 8 ?" q [7:0] $end
$upscope $end
$scope module sumador $end
$var wire 10 @" a [9:0] $end
$var wire 10 A" b [9:0] $end
$var wire 10 B" y [9:0] $end
$upscope $end
$upscope $end
$scope module unidad_de_control $end
$var wire 1 * interrupcion $end
$var wire 6 C" opcode [5:0] $end
$var wire 1 0 z $end
$var reg 3 D" op_alu [2:0] $end
$var reg 1 @ pop $end
$var reg 1 ? push $end
$var reg 1 : s_cargaes $end
$var reg 1 9 s_inc $end
$var reg 1 8 s_inm $end
$var reg 1 7 s_interrupcion $end
$var reg 1 6 s_load $end
$var reg 1 5 s_pop $end
$var reg 1 4 we3 $end
$var reg 1 3 we_es $end
$var reg 1 2 wez $end
$var reg 1 1 write_enable $end
$upscope $end
$upscope $end
$upscope $end
$enddefinitions $end
#0
$dumpvars
b10 D"
b100 C"
b1 B"
b0 A"
b1 @"
b0 ?"
0>"
b10 ="
b0 <"
0;"
b10 :"
b0 9"
08"
b10 7"
b0 6"
05"
b10 4"
b0 3"
bx 2"
b0 1"
b0 0"
b1 /"
bx ."
b1 -"
b1 ,"
b11 +"
bx *"
b11 )"
b1 ("
b1 '"
b100100001 &"
b1 %"
b1 $"
b1110000100 #"
b11 ""
b11 !"
b0 ~
b11 }
b10010 |
b11 {
b0 z
0y
0x
b0 w
b0 v
b1 u
b0 t
bx s
b11 r
b100001 q
b0 p
b1000100100001 o
b1 n
b0 m
b1 l
b10 k
b11 j
b1 i
b10 h
b1 g
b11 f
b1 e
b10 d
b10 c
b11 b
b0 a
b1000100100001 `
b10 _
b100 ^
b1 ]
b10 \
b0 [
b0 Z
b0 Y
b0 X
b11 W
b1 V
bx U
b0 T
b11 S
b1 R
b1 Q
b11 P
b1 O
bx N
b1 M
b11 L
0K
b0 J
b0 I
b0 H
b0 G
b0 F
b0 E
b1 D
b0 C
b10 B
b100 A
0@
0?
b0 >
b0 =
b0 <
b0 ;
0:
19
08
07
06
05
14
03
12
01
00
b0 /
b0 .
b1 -
b0 ,
1+
0*
1)
b0 (
b0 '
b0 &
b0 %
b0 $
b0 #
b1 "
b0 !
$end
#1000
0+
#3000
0)
#6000
b1 L
b1 j
b1 !"
b1 P
b1 ""
b1 +"
b1 S
b1 }
b1 )"
b10 R
b10 $"
b10 /"
b1 W
b1 b
b1 f
b1 r
b1 {
b10 O
b10 %"
b10 -"
b11 B
b11 _
b11 c
b11 D"
b11 ]
b11 e
b11 l
b10 Q
b10 '"
b10 ,"
b1000 A
b1000 ^
b1000 C"
b10 M
b10 ("
b10 B"
b10000100100001 `
b10000100100001 o
b1 a
b1 p
b1 0"
b1 1"
b1 A"
1)
#6100
b11 L
b11 j
b11 !"
b11 P
b11 ""
b11 +"
b11 S
b11 }
b11 )"
b100100001 O
b100100001 %"
b100100001 -"
b1110000100 R
b1110000100 $"
b1110000100 /"
b1 3"
b11 W
b11 b
b11 f
b11 r
b11 {
b100100001 Q
b100100001 '"
b100100001 ,"
17
1?
b0 B
b0 _
b0 c
b0 D"
02
04
09
1*
#9000
0)
#12000
b101000001 O
b101000001 %"
b101000001 -"
b101000001 Q
b101000001 '"
b101000001 ,"
b1111 \
b1111 d
b1111 k
b1111 4"
b1111 7"
b1111 :"
b1111 ="
b100 A
b100 ^
b100 C"
b1 q
b101000001 &"
b10100 |
b100 h
b1110000101 M
b1110000101 ("
b1110000101 B"
b1000101000001 `
b1000101000001 o
b1110000100 a
b1110000100 p
b1110000100 0"
b1110000100 1"
b1110000100 A"
1)
#12100
b10010 L
b10010 j
b10010 !"
b10010 P
b10010 ""
b10010 +"
b10010 S
b10010 }
b10010 )"
b1110000101 O
b1110000101 %"
b1110000101 -"
b1110000101 R
b1110000101 $"
b1110000101 /"
b10010 W
b10010 b
b10010 f
b10010 r
b10010 {
b1110000101 Q
b1110000101 '"
b1110000101 ,"
07
0?
b10 B
b10 _
b10 c
b10 D"
12
14
19
0*
#15000
0)
#18000
b100001 L
b100001 j
b100001 !"
b100001 P
b100001 ""
b100001 +"
b100001 S
b100001 }
b100001 )"
b1110000110 R
b1110000110 $"
b1110000110 /"
b100001 W
b100001 b
b100001 f
b100001 r
b100001 {
b1110000110 O
b1110000110 %"
b1110000110 -"
b10010 ]
b10010 e
b10010 l
b1110000110 Q
b1110000110 '"
b1110000110 ,"
b1110000110 M
b1110000110 ("
b1110000110 B"
b1110000101 a
b1110000101 p
b1110000101 0"
b1110000101 1"
b1110000101 A"
1)
#21000
0)
#24000
b110000 L
b110000 j
b110000 !"
b110000 P
b110000 ""
b110000 +"
b110000 S
b110000 }
b110000 )"
b1110000111 R
b1110000111 $"
b1110000111 /"
b110000 W
b110000 b
b110000 f
b110000 r
b110000 {
b1110000111 O
b1110000111 %"
b1110000111 -"
b100001 ]
b100001 e
b100001 l
b1110000111 Q
b1110000111 '"
b1110000111 ,"
b1110000111 M
b1110000111 ("
b1110000111 B"
b1110000110 a
b1110000110 p
b1110000110 0"
b1110000110 1"
b1110000110 A"
1)
#27000
0)
#30000
b1111 L
b1111 j
b1111 !"
b1111 P
b1111 ""
b1111 +"
b1111 S
b1111 }
b1111 )"
b10 R
b10 $"
b10 /"
b0 3"
b10 N
b10 ."
b10 2"
b1 T
b1 z
b1 ~
b10 V
b10 n
b1111 W
b1111 b
b1111 f
b1111 r
b1111 {
b10 O
b10 %"
b10 -"
15
1@
b0 B
b0 _
b0 c
b0 D"
02
04
09
b0 \
b0 d
b0 k
b0 4"
b0 7"
b0 :"
b0 ="
b1111 ]
b1111 e
b1111 l
b0 Q
b0 '"
b0 ,"
b111101 A
b111101 ^
b111101 C"
1x
b1 m
b0 q
b0 &"
b1000000 |
b0 i
b0 h
b100 g
b1110001000 M
b1110001000 ("
b1110001000 B"
b1111010000000000 `
b1111010000000000 o
b1110000111 a
b1110000111 p
b1110000111 0"
b1110000111 1"
b1110000111 A"
1)
#33000
0)
#36000
b111 L
b111 j
b111 !"
b11 R
b11 $"
b11 /"
b111 P
b111 ""
b111 +"
1K
b11 O
b11 %"
b11 -"
b111 S
b111 }
b111 )"
b0 T
b0 z
b0 ~
b1 V
b1 n
b0 W
b0 b
b0 f
b0 r
b0 {
05
0@
14
18
19
b11 Q
b11 '"
b11 ,"
b0 ]
b0 e
b0 l
b101000 A
b101000 ^
b101000 C"
0x
b0 m
b110100 q
b1110100 &"
b111 |
b100 i
b111 h
b0 g
b11 M
b11 ("
b11 B"
b1010000001110100 `
b1010000001110100 o
b10 a
b10 p
b10 0"
b10 1"
b10 A"
1)
#39000
0)
#42000
b0 L
b0 j
b0 !"
b110 R
b110 $"
b110 /"
b1000 V
b1000 n
b0 P
b0 ""
b0 +"
b110 O
b110 %"
b110 -"
04
08
09
b0 S
b0 }
b0 )"
b110 Q
b110 '"
b110 ,"
b11 A
b11 ^
b11 C"
1x
1y
b11 m
b110 q
b110 &"
b11000000 |
b110 i
b0 h
b1100 g
b100 M
b100 ("
b100 B"
b110000000110 `
b110000000110 o
b11 a
b11 p
b11 0"
b11 1"
b11 A"
1)
#45000
0)
#48000
b110111 L
b110111 j
b110111 !"
b110111 P
b110111 ""
b110111 +"
b111 R
b111 $"
b111 /"
0K
b110111 S
b110111 }
b110111 )"
b1 V
b1 n
b111 O
b111 %"
b111 -"
b110111 W
b110111 b
b110111 f
b110111 r
b110111 {
b10 B
b10 _
b10 c
b10 D"
12
14
19
b0 T
b0 z
b0 ~
b111 Q
b111 '"
b111 ,"
b111 \
b111 d
b111 k
b111 4"
b111 7"
b111 :"
b111 ="
b110000 ]
b110000 e
b110000 l
b100 A
b100 ^
b100 C"
0x
0y
b0 m
b1 q
b101000001 &"
b10100 |
b1 i
b100 h
b1 g
b111 M
b111 ("
b111 B"
b1000101000001 `
b1000101000001 o
b110 a
b110 p
b110 0"
b110 1"
b110 A"
1)
#51000
0)
#54000
b111 L
b111 j
b111 !"
b111 P
b111 ""
b111 +"
b111 S
b111 }
b111 )"
b1001 R
b1001 $"
b1001 /"
b1 T
b1 z
b1 ~
b10 V
b10 n
b111 W
b111 b
b111 f
b111 r
b111 {
b1001 O
b1001 %"
b1001 -"
b0 B
b0 _
b0 c
b0 D"
04
09
b0 \
b0 d
b0 k
b0 4"
b0 7"
b0 :"
b0 ="
b111 ]
b111 e
b111 l
b1001 Q
b1001 '"
b1001 ,"
b1 A
b1 ^
b1 C"
1x
b1 m
b1001 q
b1001 &"
b1000000 |
b1001 i
b0 h
b100 g
b1000 M
b1000 ("
b1000 B"
b10000001001 `
b10000001001 o
b111 a
b111 p
b111 0"
b111 1"
b111 A"
1)
#57000
0)
#60000
b0 L
b0 j
b0 !"
b0 P
b0 ""
b0 +"
b1010 R
b1010 $"
b1010 /"
1K
b0 S
b0 }
b0 )"
b0 T
b0 z
b0 ~
b1 V
b1 n
b1010 O
b1010 %"
b1010 -"
b0 W
b0 b
b0 f
b0 r
b0 {
b11 B
b11 _
b11 c
b11 D"
14
19
b1010 Q
b1010 '"
b1010 ,"
b110111 \
b110111 d
b110111 k
b110111 4"
b110111 7"
b110111 :"
b110111 ="
b110111 ]
b110111 e
b110111 l
b1000 A
b1000 ^
b1000 C"
0x
b0 m
b10001 q
b100010001 &"
b10001 |
b1 i
b1 h
b1 g
b1010 M
b1010 ("
b1010 B"
b10000100010001 `
b10000100010001 o
b1001 a
b1001 p
b1001 0"
b1001 1"
b1001 A"
1)
#63000
0)
#66000
b1100 R
b1100 $"
b1100 /"
b1100 O
b1100 %"
b1100 -"
b0 B
b0 _
b0 c
b0 D"
04
09
b0 ]
b0 e
b0 l
b0 \
b0 d
b0 k
b0 4"
b0 7"
b0 :"
b0 ="
b1100 Q
b1100 '"
b1100 ,"
b0 A
b0 ^
b0 C"
b1100 q
b1100 &"
b0 |
b1100 i
b0 h
b0 g
b1011 M
b1011 ("
b1011 B"
b1100 `
b1100 o
b1010 a
b1010 p
b1010 0"
b1010 1"
b1010 A"
10
1)
#69000
0)
#72000
b1110 L
b1110 j
b1110 !"
b1110 P
b1110 ""
b1110 +"
b1101 R
b1101 $"
b1101 /"
0K
b1110 S
b1110 }
b1110 )"
b1 T
b1 z
b1 ~
b10 V
b10 n
b1101 O
b1101 %"
b1101 -"
b1110 W
b1110 b
b1110 f
b1110 r
b1110 {
b10 B
b10 _
b10 c
b10 D"
14
19
b1101 Q
b1101 '"
b1101 ,"
b111 \
b111 d
b111 k
b111 4"
b111 7"
b111 :"
b111 ="
b111 ]
b111 e
b111 l
b101 A
b101 ^
b101 C"
1x
b1 m
b1 q
b1000001 &"
b1000100 |
b1 i
b100 h
b100 g
b1101 M
b1101 ("
b1101 B"
b1010001000001 `
b1010001000001 o
b1100 a
b1100 p
b1100 0"
b1100 1"
b1100 A"
1)
#75000
0)
#78000
b0 L
b0 j
b0 !"
b0 P
b0 ""
b0 +"
1K
b0 S
b0 }
b0 )"
b100000 R
b100000 $"
b100000 /"
b1 3"
b0 T
b0 z
b0 ~
b1 V
b1 n
b0 W
b0 b
b0 f
b0 r
b0 {
b100000 O
b100000 %"
b100000 -"
1?
b0 B
b0 _
b0 c
b0 D"
02
04
09
b10 \
b10 d
b10 k
b10 4"
b10 7"
b10 :"
b10 ="
b0 ]
b0 e
b0 l
b100000 Q
b100000 '"
b100000 ,"
b111100 A
b111100 ^
b111100 C"
0x
b0 m
b100000 q
b100000 &"
b10 |
b0 i
b10 h
b0 g
b1110 M
b1110 ("
b1110 B"
b1111000000100000 `
b1111000000100000 o
b1101 a
b1101 p
b1101 0"
b1101 1"
b1101 A"
00
1)
#81000
0)
#84000
b1110 L
b1110 j
b1110 !"
b1110 P
b1110 ""
b1110 +"
b100001 R
b100001 $"
b100001 /"
0K
b1110 S
b1110 }
b1110 )"
b1 T
b1 z
b1 ~
b10 V
b10 n
b100001 O
b100001 %"
b100001 -"
b1110 W
b1110 b
b1110 f
b1110 r
b1110 {
0?
b10 B
b10 _
b10 c
b10 D"
12
14
19
b100001 Q
b100001 '"
b100001 ,"
b111 \
b111 d
b111 k
b111 4"
b111 7"
b111 :"
b111 ="
b111 ]
b111 e
b111 l
b101 A
b101 ^
b101 C"
1x
b1 m
b1 q
b1000001 &"
b1000100 |
b1 i
b100 h
b100 g
b100001 M
b100001 ("
b100001 B"
b1010001000001 `
b1010001000001 o
b100000 a
b100000 p
b100000 0"
b100000 1"
b100000 A"
1)
#87000
0)
#90000
b1100 L
b1100 j
b1100 !"
b1100 P
b1100 ""
b1100 +"
b1100 S
b1100 }
b1100 )"
b100010 R
b100010 $"
b100010 /"
b0 T
b0 z
b0 ~
b1 V
b1 n
b1100 W
b1100 b
b1100 f
b1100 r
b1100 {
b100010 O
b100010 %"
b100010 -"
b11 B
b11 _
b11 c
b11 D"
b10 \
b10 d
b10 k
b10 4"
b10 7"
b10 :"
b10 ="
b1110 ]
b1110 e
b1110 l
b100010 Q
b100010 '"
b100010 ,"
b1000 A
b1000 ^
b1000 C"
0x
b0 m
b100001 q
b100100001 &"
b10010 |
b10 h
b1 g
b100010 M
b100010 ("
b100010 B"
b10000100100001 `
b10000100100001 o
b100001 a
b100001 p
b100001 0"
b100001 1"
b100001 A"
1)
#93000
0)
#96000
b0 L
b0 j
b0 !"
b0 P
b0 ""
b0 +"
1K
b0 S
b0 }
b0 )"
b101000 R
b101000 $"
b101000 /"
b10 3"
b0 W
b0 b
b0 f
b0 r
b0 {
b101000 O
b101000 %"
b101000 -"
1?
b0 B
b0 _
b0 c
b0 D"
02
04
09
b0 ]
b0 e
b0 l
b101000 Q
b101000 '"
b101000 ,"
b111100 A
b111100 ^
b111100 C"
b101000 q
b101000 &"
b10 |
b1000 i
b0 g
b100011 M
b100011 ("
b100011 B"
b1111000000101000 `
b1111000000101000 o
b100010 a
b100010 p
b100010 0"
b100010 1"
b100010 A"
1)
#99000
0)
#102000
b1110 L
b1110 j
b1110 !"
b1110 P
b1110 ""
b1110 +"
b101001 R
b101001 $"
b101001 /"
0K
b1110 S
b1110 }
b1110 )"
b1 T
b1 z
b1 ~
b10 V
b10 n
b101001 O
b101001 %"
b101001 -"
b1110 W
b1110 b
b1110 f
b1110 r
b1110 {
0?
b10 B
b10 _
b10 c
b10 D"
12
14
19
b101001 Q
b101001 '"
b101001 ,"
b111 \
b111 d
b111 k
b111 4"
b111 7"
b111 :"
b111 ="
b111 ]
b111 e
b111 l
b101 A
b101 ^
b101 C"
1x
b1 m
b1 q
b1000001 &"
b1000100 |
b1 i
b100 h
b100 g
b101001 M
b101001 ("
b101001 B"
b1010001000001 `
b1010001000001 o
b101000 a
b101000 p
b101000 0"
b101000 1"
b101000 A"
1)
#105000
0)
#108000
b111 P
b111 ""
b111 +"
b111 S
b111 }
b111 )"
b101010 R
b101010 $"
b101010 /"
b1 L
b1 j
b1 !"
b111 W
b111 b
b111 f
b111 r
b111 {
b101010 O
b101010 %"
b101010 -"
1:
b0 B
b0 _
b0 c
b0 D"
02
b0 \
b0 d
b0 k
b0 4"
b0 7"
b0 :"
b0 ="
b101010 Q
b101010 '"
b101010 ,"
b10101 A
b10101 ^
b10101 C"
b100 q
b100 &"
b1000000 |
b100 i
b0 h
b101010 M
b101010 ("
b101010 B"
b101010000000100 `
b101010000000100 o
b101001 a
b101001 p
b101001 0"
b101001 1"
b101001 A"
1)
#111000
0)
#114000
b10 P
b10 ""
b10 +"
b10 S
b10 }
b10 )"
b101011 R
b101011 $"
b101011 /"
b10 L
b10 j
b10 !"
b10 W
b10 b
b10 f
b10 r
b10 {
b101011 O
b101011 %"
b101011 -"
0:
b10 B
b10 _
b10 c
b10 D"
12
b1 \
b1 d
b1 k
b1 4"
b1 7"
b1 :"
b1 ="
b1 ]
b1 e
b1 l
b101011 Q
b101011 '"
b101011 ,"
b101 A
b101 ^
b101 C"
b1000100 &"
b1000100 |
b100 h
b101011 M
b101011 ("
b101011 B"
b1010001000100 `
b1010001000100 o
b101010 a
b101010 p
b101010 0"
b101010 1"
b101010 A"
1)
#117000
0)
#120000
b10 '
b10 =
b10 H
b10 Z
b10 9"
b101100 R
b101100 $"
b101100 /"
18"
b101100 O
b101100 %"
b101100 -"
13
b0 B
b0 _
b0 c
b0 D"
02
04
b10 ]
b10 e
b10 l
b10 \
b10 d
b10 k
b10 4"
b10 7"
b10 :"
b10 ="
b101100 Q
b101100 '"
b101100 ,"
b11001 A
b11001 ^
b11001 C"
b0 q
b1000000 &"
b0 i
b101100 M
b101100 ("
b101100 B"
b110010001000000 `
b110010001000000 o
b101011 a
b101011 p
b101011 0"
b101011 1"
b101011 A"
1)
#123000
0)
#126000
b100 L
b100 j
b100 !"
b100 P
b100 ""
b100 +"
b100 S
b100 }
b100 )"
b101101 R
b101101 $"
b101101 /"
08"
b100 W
b100 b
b100 f
b100 r
b100 {
b101101 O
b101101 %"
b101101 -"
03
b10 B
b10 _
b10 c
b10 D"
12
14
b101101 Q
b101101 '"
b101101 ,"
b101 A
b101 ^
b101 C"
b100 q
b1000100 &"
b100 i
b101101 M
b101101 ("
b101101 B"
b1010001000100 `
b1010001000100 o
b101100 a
b101100 p
b101100 0"
b101100 1"
b101100 A"
1)
#129000
0)
#132000
b100011 R
b100011 $"
b100011 /"
b1 3"
b100011 N
b100011 ."
b100011 2"
b100011 O
b100011 %"
b100011 -"
15
1@
b0 B
b0 _
b0 c
b0 D"
02
04
09
b100 ]
b100 e
b100 l
b0 \
b0 d
b0 k
b0 4"
b0 7"
b0 :"
b0 ="
b0 Q
b0 '"
b0 ,"
b111101 A
b111101 ^
b111101 C"
b0 q
b0 &"
b1000000 |
b0 i
b0 h
b101110 M
b101110 ("
b101110 B"
b1111010000000000 `
b1111010000000000 o
b101101 a
b101101 p
b101101 0"
b101101 1"
b101101 A"
1)
#135000
0)
#138000
b1000 L
b1000 j
b1000 !"
b1000 P
b1000 ""
b1000 +"
b100100 R
b100100 $"
b100100 /"
b1000 S
b1000 }
b1000 )"
b100100 O
b100100 %"
b100100 -"
b1000 W
b1000 b
b1000 f
b1000 r
b1000 {
05
0@
b10 B
b10 _
b10 c
b10 D"
12
14
19
b100100 Q
b100100 '"
b100100 ,"
b100 \
b100 d
b100 k
b100 4"
b100 7"
b100 :"
b100 ="
b101 A
b101 ^
b101 C"
b1 q
b1000001 &"
b1000100 |
b1 i
b100 h
b100100 M
b100100 ("
b100100 B"
b1010001000001 `
b1010001000001 o
b100011 a
b100011 p
b100011 0"
b100011 1"
b100011 A"
1)
#141000
0)
#144000
b100 L
b100 j
b100 !"
b100 P
b100 ""
b100 +"
b100 S
b100 }
b100 )"
b1110 R
b1110 $"
b1110 /"
b0 3"
b1110 N
b1110 ."
b1110 2"
b100 W
b100 b
b100 f
b100 r
b100 {
b1110 O
b1110 %"
b1110 -"
15
1@
b0 B
b0 _
b0 c
b0 D"
02
04
09
b0 \
b0 d
b0 k
b0 4"
b0 7"
b0 :"
b0 ="
b0 Q
b0 '"
b0 ,"
b111101 A
b111101 ^
b111101 C"
b0 q
b0 &"
b1000000 |
b0 i
b0 h
b100101 M
b100101 ("
b100101 B"
b1111010000000000 `
b1111010000000000 o
b100100 a
b100100 p
b100100 0"
b100100 1"
b100100 A"
1)
#147000
0)
#150000
bx L
bx j
bx !"
b1111 R
b1111 $"
b1111 /"
b11 S
b11 }
b11 )"
bx P
bx ""
bx +"
b1111 O
b1111 %"
b1111 -"
b100 V
b100 n
b11 W
b11 b
b11 f
b11 r
b11 {
16
05
0@
14
19
b0 T
b0 z
b0 ~
b1111 Q
b1111 '"
b1111 ,"
b11 ]
b11 e
b11 l
b10010 A
b10010 ^
b10010 C"
0x
1y
b10 m
b1 q
b1 &"
b10000000 |
b1 i
b1000 g
b1111 M
b1111 ("
b1111 B"
b100100000000001 `
b100100000000001 o
b1110 a
b1110 p
b1110 0"
b1110 1"
b1110 A"
1)
#153000
0)
#156000
b10000 L
b10000 j
b10000 !"
xK
b10000 R
b10000 $"
b10000 /"
b10000 P
b10000 ""
b10000 +"
b10000 S
b10000 }
b10000 )"
b1 V
b1 n
bx W
bx b
bx f
bx r
bx {
b10000 O
b10000 %"
b10000 -"
06
18
bx ]
bx e
bx l
b10000 Q
b10000 '"
b10000 ,"
b101000 A
b101000 ^
b101000 C"
0y
b0 m
b100000001 &"
b10000 |
b1 g
b10000 M
b10000 ("
b10000 B"
b1010000100000001 `
b1010000100000001 o
b1111 a
b1111 p
b1111 0"
b1111 1"
b1111 A"
1)
#159000
0)
#162000
b100000 L
b100000 j
b100000 !"
0K
b10001 R
b10001 $"
b10001 /"
b100000 P
b100000 ""
b100000 +"
b100000 W
b100000 b
b100000 f
b100000 r
b100000 {
b10001 O
b10001 %"
b10001 -"
b10 B
b10 _
b10 c
b10 D"
12
08
b100000 S
b100000 }
b100000 )"
b10000 \
b10000 d
b10000 k
b10000 4"
b10000 7"
b10000 :"
b10000 ="
b10000 ]
b10000 e
b10000 l
b10001 Q
b10001 '"
b10001 ,"
b100 A
b100 ^
b100 C"
b10001 q
b100010001 &"
b10001 |
b1 h
b10001 M
b10001 ("
b10001 B"
b1000100010001 `
b1000100010001 o
b10000 a
b10000 p
b10000 0"
b10000 1"
b10000 A"
1)
#165000
0)
#168000
b0 L
b0 j
b0 !"
b0 P
b0 ""
b0 +"
1K
b0 S
b0 }
b0 )"
b10001 R
b10001 $"
b10001 /"
b1000 V
b1000 n
b0 W
b0 b
b0 f
b0 r
b0 {
b10001 O
b10001 %"
b10001 -"
b0 B
b0 _
b0 c
b0 D"
02
04
09
b0 ]
b0 e
b0 l
b100000 \
b100000 d
b100000 k
b100000 4"
b100000 7"
b100000 :"
b100000 ="
b10001 Q
b10001 '"
b10001 ,"
b11 A
b11 ^
b11 C"
1x
1y
b11 m
b10001 &"
b11000001 |
b1100 g
b10010 M
b10010 ("
b10010 B"
b110000010001 `
b110000010001 o
b10001 a
b10001 p
b10001 0"
b10001 1"
b10001 A"
1)
